L1D_CACHE_MISS_LD: 149835903
L1D_CACHE_MISS_LD_NONSPEC: 55399090
L1D_CACHE_MISS_ST: 81743993
L1D_CACHE_MISS_ST_NONSPEC: 18454413
L1D_CACHE_WRITEBACK: 10086347
L1D_TLB_ACESS: 28577936562
L1D_TLB_FILL: 907351
L1D_TLB_MISS: 1619791
